D:\AssessmentOnJava\EnneaSolAssessment\src\main\java\com\chandan\ennea\exception\ErrorCodes.java
D:\AssessmentOnJava\EnneaSolAssessment\src\main\java\com\chandan\ennea\util\GenericUtils.java
D:\AssessmentOnJava\EnneaSolAssessment\src\main\java\com\chandan\ennea\constants\Generic.java
D:\AssessmentOnJava\EnneaSolAssessment\src\main\java\com\chandan\ennea\exception\ErrorDetails.java
D:\AssessmentOnJava\EnneaSolAssessment\src\main\java\com\chandan\ennea\config\RestExceptionHandler.java
D:\AssessmentOnJava\EnneaSolAssessment\src\main\java\com\chandan\ennea\entity\Product.java
D:\AssessmentOnJava\EnneaSolAssessment\src\main\java\com\chandan\ennea\util\CsvToObjectConverter.java
D:\AssessmentOnJava\EnneaSolAssessment\src\main\java\com\chandan\ennea\exception\ProductNotFoundException.java
D:\AssessmentOnJava\EnneaSolAssessment\src\main\java\com\chandan\ennea\service\impl\ProductServiceImpl.java
D:\AssessmentOnJava\EnneaSolAssessment\src\main\java\com\chandan\ennea\constants\MethodNames.java
D:\AssessmentOnJava\EnneaSolAssessment\src\main\java\com\chandan\ennea\util\ResponseMessage.java
D:\AssessmentOnJava\EnneaSolAssessment\src\main\java\com\chandan\ennea\EnneaSolAssessmentApplication.java
D:\AssessmentOnJava\EnneaSolAssessment\src\main\java\com\chandan\ennea\resource\ProductController.java
D:\AssessmentOnJava\EnneaSolAssessment\src\main\java\com\chandan\ennea\service\ProductService.java
D:\AssessmentOnJava\EnneaSolAssessment\src\main\java\com\chandan\ennea\util\LogUtils.java
D:\AssessmentOnJava\EnneaSolAssessment\src\main\java\com\chandan\ennea\util\GenericFunctions.java
D:\AssessmentOnJava\EnneaSolAssessment\src\main\java\com\chandan\ennea\repository\ProductRepository.java
D:\AssessmentOnJava\EnneaSolAssessment\src\main\java\com\chandan\ennea\util\ExceptionUtils.java
